<?xml version="1.0" encoding="utf-8"?>
<svg viewBox="0 0 24 24" xmlns="http://www.w3.org/2000/svg" xmlns:bx="https://boxy-svg.com">
  <g transform="matrix(1, 0, 0, 1, -34.796608, 0.443673)">
    <path d="M 1.037 16.425 L 6.037 16.425" fill="none" stroke="currentColor" stroke-width="2.25" stroke-linecap="round" stroke-linejoin="round" transform="matrix(0, -1, 1, 0, -12.547499, 20.302499)" bx:origin="0.5681 0.5"/>
    <path d="M 8.197 13.585 L 18.197 13.585" fill="none" stroke="currentColor" stroke-width="2.25" stroke-linecap="round" stroke-linejoin="round" transform="matrix(0, -1, 1, 0, 0.293, 27.463)" bx:origin="0.5681 0.5"/>
    <path d="M 1.001 11.389 L 14.867 11.389" fill="none" stroke="currentColor" stroke-width="2.25" stroke-linecap="round" stroke-linejoin="round" style="" transform="matrix(0, -1, 1, 0, -2.510726, 20.267274)" bx:origin="0.5681 0.5"/>
    <path d="M 1.264 22.539 L 22.292 22.539" fill="none" stroke="currentColor" stroke-width="2.25" stroke-linecap="round" stroke-linejoin="round" style="" bx:origin="0.5681 0.5"/>
    <path d="M 3.828 -16.426 L 20.624 -16.426" fill="none" stroke="currentColor" stroke-width="2.25" stroke-linecap="round" stroke-linejoin="round" style="" bx:origin="0.5681 0.5"/>
    <ellipse style="fill: none; stroke: rgb(48, 48, 48); stroke-width: 2px;" cx="12.277" cy="-23.818" rx="2.5" ry="2.5"/>
    <path d="M 1.963 -14.625 L 5.133 -14.625" fill="none" stroke="currentColor" stroke-width="2.25" stroke-linecap="round" stroke-linejoin="round" style="" transform="matrix(0, 1, -1, 0, -10.861123, -18.388877)" bx:origin="0.5681 0.5"/>
    <ellipse style="fill: none; stroke: rgb(48, 48, 48); stroke-width: 2px;" cx="3.764" cy="-7.285" rx="2.5" ry="2.5"/>
    <path d="M 18.989 -14.625 L 22.159 -14.625" fill="none" stroke="currentColor" stroke-width="2.25" stroke-linecap="round" stroke-linejoin="round" style="" transform="matrix(0, 1, -1, 0, 6.164877, -35.414877)" bx:origin="0.5681 0.5"/>
    <path d="M 9.468 -15.391 L 14.412 -15.391" fill="none" stroke="currentColor" stroke-width="2.25" stroke-linecap="round" stroke-linejoin="round" style="" transform="matrix(0, 1, -1, 0, -3.114313, -27.667686)" bx:origin="0.5681 0.5"/>
    <ellipse style="fill: none; stroke: rgb(48, 48, 48); stroke-width: 2px;" cx="12.277" cy="-7.285" rx="2.5" ry="2.5"/>
    <title>ui interface configuration setting</title>
  </g>
  <path style="stroke-width: 32.2885px; stroke-linecap: round; stroke-linejoin: round; fill: none; stroke: rgb(48, 48, 48);" transform="matrix(0.056292, 0.023899, -0.024513, 0.05774, -21.878441, -23.810558)" d="M 717.851 151.645 L 756.149 151.645 L 775.347 203.811 A 117.616 117.616 0 0 1 800.022 215.694 L 852.777 198.179 L 876.655 228.12 L 847.84 275.656 A 117.616 117.616 0 0 1 853.934 302.356 L 900.521 332.682 L 891.999 370.018 L 836.868 377.128 A 117.616 117.616 0 0 1 819.793 398.539 L 825.13 453.87 L 790.625 470.486 L 750.693 431.816 A 117.616 117.616 0 0 1 723.307 431.816 L 683.375 470.486 L 648.87 453.87 L 654.207 398.539 A 117.616 117.616 0 0 1 637.132 377.128 L 582.001 370.018 L 573.479 332.682 L 620.066 302.356 A 117.616 117.616 0 0 1 626.16 275.656 L 597.345 228.12 L 621.223 198.179 L 673.978 215.694 A 117.616 117.616 0 0 1 698.653 203.811 Z M 737 262.726 A 52.274 52.274 0 0 0 737 367.274 A 52.274 52.274 0 0 0 737 262.726" bx:shape="cog 737 315 52.274 117.616 163.355 0.48 7 1@914c2fe1" bx:origin="0.502014 0.484462"/>
</svg>